Data-Driven ROPE Analysis
…
Run bootstrap permutations to yield estimates you would observe under the null hypothesis

Treat the x% confidence interval of your permuted model estimates as your ROPE

1 - Fit the Model

The data I’m going to use in this example comes from the UCI machine learning repository, and contains various types of information about different cars’ performance:

library(tidyverse)
cardat <- read_csv("auto-mpg.csv") %>%
  filter(!is.na(horsepower)) %>%  # 6 rows missing horsepower data
  mutate(origin = as.factor(origin))
cardat
## # A tibble: 392 x 9
##      mpg cylinders displacement horsepower weight acceleration model_year origin
##    <dbl>     <dbl>        <dbl>      <dbl>  <dbl>        <dbl>      <dbl> <fct> 
##  1    18         8          307        130   3504         12           70 1     
##  2    15         8          350        165   3693         11.5         70 1     
##  3    18         8          318        150   3436         11           70 1     
##  4    16         8          304        150   3433         12           70 1     
##  5    17         8          302        140   3449         10.5         70 1     
##  6    15         8          429        198   4341         10           70 1     
##  7    14         8          454        220   4354          9           70 1     
##  8    14         8          440        215   4312          8.5         70 1     
##  9    14         8          455        225   4425         10           70 1     
## 10    15         8          390        190   3850          8.5         70 1     
## # ... with 382 more rows, and 1 more variable: car_name <chr>
…
