Item-Wise and Distribution-Wise Matching
…
face_stim <- tibble(
  stim_id = sprintf("face_%g", 1:n_stim),
  gender = as.factor(sample(c("m", "f"), size=n_stim, replace=TRUE)),
  age = sample(18:60, size=n_stim, replace=TRUE),
  face_width = rnorm(n_stim, 65, 2.5)
) %>%
  mutate(face_width = if_else(gender=="f", face_width-2.5, face_width))

Item-Wise Matching

Something I’ve worked on quite a bit for the last couple of years has been the R package, LexOPS. If you’re interested in finding out more, there’s an online walkthrough for the package. Long story short, it makes it easy to create lists of matched items for experiments. For example, imagine we have a database of faces that looks like this:

face_stim
## # A tibble: 1,000 x 4
##    stim_id gender   age face_width
##    <chr>   <fct>  <int>      <dbl>
##  1 face_1  m         53       67.6
##  2 face_2  f         37       68.2
##  3 face_3  m         48       68.3
##  4 face_4  m         30       62.8
##  5 face_5  f         20       61.2
##  6 face_6  m         57       66.5
##  7 face_7  m         41       65.0
##  8 face_8  m         46       65.7
##  9 face_9  f         27       59.2
## 10 face_10 f         30       61.4
## # ... with 990 more rows
…
Now we have the overlap indices for males’ and females’ distributions in the two variables, for each of the 20000 seeds.

seed_results
## # A tibble: 20,000 x 3
##     seed ov_age ov_face_width
##    <int>  <dbl>         <dbl>
##  1     1  0.823         0.412
##  2     2  0.811         0.419
##  3     3  0.810         0.595
##  4     4  0.810         0.483
##  5     5  0.671         0.545
##  6     6  0.846         0.525
##  7     7  0.825         0.360
##  8     8  0.787         0.453
##  9     9  0.680         0.531
## 10    10  0.794         0.388
## # ... with 19,990 more rows
…
